@startuml

skinparam rectangle {
	roundCorner 25	
}

skinparam artifact {
	BackgroundColor LightGreen

}

skinparam arrow {
	color DarkSlateGrey
	color<<natlink>> Brown
	color<<userlink>> Green
}

actor team

frame "A2COM - central" as central {
	rectangle Kibana
	rectangle Elasticsearch
	rectangle Logstash
	database ddb as ddb {
	}
}

frame national #LemonChiffon {
	rectangle FileBeat as filebeat_n
	file sages2.log as sages2_n
	file localhost_access_log.YYYY_MM_DD.txt as apache_n
	file localhost.YYYY_MM_DD.log as tomcat_n
	file catalina.YYYY_MM_DD.log as catalina_n
	file postgresql_YYYY_MM_DD_xxx.log as postgres_n
}

frame local1 {
	rectangle FileBeat as filebeat_1
	file sages2.log as sages2_1
	file localhost_access_log.YYYY_MM_DD.txt as apache_1
	file localhost.YYYY_MM_DD.log as tomcat_1
	file catalina.YYYY_MM_DD.log as catalina_1
	file postgresql_YYYY_MM_DD_xxx.log as postgres_1
}

frame local2 {
	rectangle FileBeat as filebeat_2
	file sages2.log as sages2_2
	file localhost_access_log.YYYY_MM_DD.txt as apache_2
	file localhost.YYYY_MM_DD.log as tomcat_2
	file catalina.YYYY_MM_DD.log as catalina_2
	file postgresql_YYYY_MM_DD_xxx.log as postgres_2
}


note right of ddb #Gold
Insérer la documentation des différents composant de la pile elastic: 
**FileBeats** :
**logstash** :
**elasticsearch** :
**kibana** : "
end note


'permet de mettre les différents liens entre les composants'
team -[dashed]> Kibana <<userlink>>
Kibana <-- Elasticsearch
Elasticsearch <-- Logstash
Elasticsearch -right- ddb
'ddb <-- Elasticsearch
Logstash <--[dashed,thickness=2]--- filebeat_n <<natlink>>
Logstash <--[dashed,thickness=2]--- filebeat_1 <<natlink>>
Logstash <--[dashed,thickness=2]--- filebeat_2 <<natlink>>

filebeat_n <- sages2_n
filebeat_n <- apache_n
filebeat_n <- catalina_n
filebeat_n <- postgres_n
filebeat_n <- tomcat_n

filebeat_1 <- sages2_1
filebeat_1 <- apache_1
filebeat_1 <- catalina_1
filebeat_1 <- postgres_1
filebeat_1 <- tomcat_1

filebeat_2 <- sages2_2
filebeat_2 <- apache_2
filebeat_2 <- catalina_2
filebeat_2 <- postgres_2
filebeat_2 <- tomcat_2

'permet de placer les bloc les uns sous les autres'
sages2_n -[hidden]down-> catalina_n
catalina_n -[hidden]down-> tomcat_n
tomcat_n -[hidden]down-> postgres_n
postgres_n -[hidden]down-> apache_n

sages2_1 -[hidden]down-> catalina_1
catalina_1 -[hidden]down-> tomcat_1
tomcat_1 -[hidden]down-> postgres_1
postgres_1 -[hidden]down-> apache_1

sages2_2 -[hidden]down-> catalina_2
catalina_2 -[hidden]down-> tomcat_2
tomcat_2 -[hidden]down-> postgres_2
postgres_2 -[hidden]down-> apache_2


'Logstash -[hidden]down-> apache_n
'Tomcat_c -up-> secrets_c



@enduml